%YAML 1.1
%TAG !u! tag:unity3d.com,2011:
--- !u!55 &1
PhysicsManager:
  m_ObjectHideFlags: 0
  serializedVersion: 3
  m_Gravity: {x: 0, y: -9.81, z: 0}
  m_DefaultMaterial: {fileID: 0}
  m_BounceThreshold: 2
  m_SleepThreshold: 0.005
  m_DefaultContactOffset: 0.01
  m_DefaultSolverIterations: 6
  m_DefaultSolverVelocityIterations: 1
  m_QueriesHitBackfaces: 0
  m_QueriesHitTriggers: 1
  m_EnableAdaptiveForce: 0
  m_EnablePCM: 1
  m_LayerCollisionMatrix: ffd7ffffffd3fdffffd3fdffffffffffffd3fdffffd3fdffffffffffffffffffffd7ffffffd3fdffc945f4ffc800f0ffffd3ffffc8e0fdffff37ffffff33fffffff3ffffc9d1fdfffff7fffffff3ffffffffffffffffffffffffffffffffffffffffffffffffffffffffffffffffffffffffffffffffffffffffffffffffffff
  m_AutoSimulation: 1
