%YAML 1.1
%TAG !u! tag:unity3d.com,2011:
--- !u!78 &1
TagManager:
  serializedVersion: 2
  tags:
  - PlayerShip
  - Dock
  - AIShip
  - Projectile
  - Turret
  layers:
  - Default
  - TransparentFX
  - Ignore Raycast
  - 
  - Water
  - UI
  - 
  - 
  - Star
  - MassBlip
  - Repulsor
  - Lidar
  - Debris
  - Bumper
  - Planet
  - Port
  - AIShip
  - Projectile
  - Ship
  - Turret
  - 
  - 
  - 
  - 
  - 
  - 
  - 
  - 
  - 
  - 
  - 
  - 
  m_SortingLayers:
  - name: Default
    uniqueID: 0
    locked: 0
